<?xml version="1.0" encoding="UTF-8" standalone="no"?>
<!-- Created with Inkscape (http://www.inkscape.org/) -->

<svg
   xmlns:dc="http://purl.org/dc/elements/1.1/"
   xmlns:cc="http://creativecommons.org/ns#"
   xmlns:rdf="http://www.w3.org/1999/02/22-rdf-syntax-ns#"
   xmlns:svg="http://www.w3.org/2000/svg"
   xmlns="http://www.w3.org/2000/svg"
   xmlns:sodipodi="http://sodipodi.sourceforge.net/DTD/sodipodi-0.dtd"
   xmlns:inkscape="http://www.inkscape.org/namespaces/inkscape"
   width="210mm"
   height="297mm"
   viewBox="0 0 210 297"
   version="1.1"
   id="svg8"
   inkscape:version="0.92.1 r15371"
   sodipodi:docname="authentification.svg"
   inkscape:export-filename="//home/zetarov/public_html/Octobus/img/authentification.png"
   inkscape:export-xdpi="97.108604"
   inkscape:export-ydpi="97.108604">
  <defs
     id="defs2" />
  <sodipodi:namedview
     id="base"
     pagecolor="#000000"
     bordercolor="#666666"
     borderopacity="1.0"
     inkscape:pageopacity="0"
     inkscape:pageshadow="2"
     inkscape:zoom="0.49497475"
     inkscape:cx="655.92834"
     inkscape:cy="623.39839"
     inkscape:document-units="mm"
     inkscape:current-layer="layer1"
     showgrid="false"
     inkscape:snap-global="false"
     inkscape:pagecheckerboard="false"
     inkscape:window-width="1366"
     inkscape:window-height="711"
     inkscape:window-x="0"
     inkscape:window-y="31"
     inkscape:window-maximized="1"
     inkscape:snap-bbox="true"
     inkscape:snap-bbox-midpoints="true"
     inkscape:lockguides="true" />
  <metadata
     id="metadata5">
    <rdf:RDF>
      <cc:Work
         rdf:about="">
        <dc:format>image/svg+xml</dc:format>
        <dc:type
           rdf:resource="http://purl.org/dc/dcmitype/StillImage" />
        <dc:title></dc:title>
      </cc:Work>
    </rdf:RDF>
  </metadata>
  <g
     inkscape:label="Calque 1"
     inkscape:groupmode="layer"
     id="layer1">
    <path
       style="opacity:1;fill:#ffffff;fill-opacity:1;stroke:#fafafa;stroke-width:3.77952766;stroke-linecap:round;stroke-linejoin:bevel;stroke-miterlimit:4;stroke-dasharray:none;stroke-dashoffset:11.71653557;stroke-opacity:1"
       d="M 86.283203 314.39844 C 65.344609 314.39844 48.488281 331.25476 48.488281 352.19336 L 48.488281 820.06445 C 48.488281 841.00304 65.344609 857.85938 86.283203 857.85938 L 723.85938 857.85938 C 744.79795 857.85937 761.6543 841.00304 761.6543 820.06445 L 761.6543 352.19336 C 761.6543 331.25476 744.79795 314.39844 723.85938 314.39844 L 86.283203 314.39844 z M 400.01953 401.27148 A 92.934033 93.944185 0 0 1 492.95508 495.21484 A 92.934033 93.944185 0 0 1 400.01953 589.1582 A 92.934033 93.944185 0 0 1 307.08594 495.21484 A 92.934033 93.944185 0 0 1 400.01953 401.27148 z M 404.59766 603.39648 A 193.94929 171.72593 0 0 1 496.99414 626.35547 A 193.94929 171.72593 0 0 1 593.96875 775.07617 L 400.01953 775.07617 L 206.07031 775.07617 A 193.94929 171.72593 0 0 1 303.04492 626.35547 A 193.94929 171.72593 0 0 1 404.59766 603.39648 z "
       transform="scale(0.26458333)"
       id="rect4511" />
    <path
       style="opacity:1;fill:#ffffff;fill-opacity:1;stroke:none;stroke-width:0.92238814;stroke-linecap:round;stroke-linejoin:bevel;stroke-miterlimit:4;stroke-dasharray:none;stroke-dashoffset:11.71653557;stroke-opacity:1"
       d="m 112.80822,-5.2242776 a 82.586286,82.586286 0 0 1 67.31545,29.4011756 l -15.14674,12.70959 a 62.371136,62.371136 0 0 0 -48.11808,-22.734646 62.371136,62.371136 0 0 0 -62.371074,62.37108 62.371136,62.371136 0 0 0 0.03717,0.739775 H 34.272736 A 82.586286,82.586286 0 0 1 88.612621,-0.34330605 82.586286,82.586286 0 0 1 112.80822,-5.2242776 Z"
       id="path4521"
       inkscape:connector-curvature="0" />
    <path
       style="fill:#ffffff;fill-opacity:1;stroke:none;stroke-width:0.26458332px;stroke-linecap:butt;stroke-linejoin:miter;stroke-opacity:1"
       d="m 148.44712,58.727845 39.41539,-28.066246 -1.63826,12.359381 11.78773,6.648584 z"
       id="path4547"
       inkscape:connector-curvature="0"
       sodipodi:nodetypes="ccccc" />
  </g>
</svg>
