<?xml version="1.0" encoding="UTF-8" standalone="no"?>
<!-- Created with Inkscape (http://www.inkscape.org/) -->

<svg
   xmlns:dc="http://purl.org/dc/elements/1.1/"
   xmlns:cc="http://creativecommons.org/ns#"
   xmlns:rdf="http://www.w3.org/1999/02/22-rdf-syntax-ns#"
   xmlns:svg="http://www.w3.org/2000/svg"
   xmlns="http://www.w3.org/2000/svg"
   xmlns:sodipodi="http://sodipodi.sourceforge.net/DTD/sodipodi-0.dtd"
   xmlns:inkscape="http://www.inkscape.org/namespaces/inkscape"
   width="210mm"
   height="297mm"
   viewBox="0 0 210 297"
   version="1.1"
   id="svg8"
   inkscape:version="0.92.1 r15371"
   sodipodi:docname="star.svg"
   inkscape:export-filename="//home/zetarov/public_html/Octobus/img/star.png"
   inkscape:export-xdpi="97.108604"
   inkscape:export-ydpi="97.108604">
  <defs
     id="defs2" />
  <sodipodi:namedview
     id="base"
     pagecolor="#000000"
     bordercolor="#666666"
     borderopacity="1.0"
     inkscape:pageopacity="0"
     inkscape:pageshadow="2"
     inkscape:zoom="0.7"
     inkscape:cx="129.07102"
     inkscape:cy="507.65975"
     inkscape:document-units="mm"
     inkscape:current-layer="layer1"
     showgrid="false"
     inkscape:snap-global="false"
     inkscape:pagecheckerboard="false"
     inkscape:window-width="1366"
     inkscape:window-height="711"
     inkscape:window-x="0"
     inkscape:window-y="31"
     inkscape:window-maximized="1"
     inkscape:snap-bbox="true"
     inkscape:snap-bbox-midpoints="true" />
  <metadata
     id="metadata5">
    <rdf:RDF>
      <cc:Work
         rdf:about="">
        <dc:format>image/svg+xml</dc:format>
        <dc:type
           rdf:resource="http://purl.org/dc/dcmitype/StillImage" />
        <dc:title></dc:title>
      </cc:Work>
    </rdf:RDF>
  </metadata>
  <g
     inkscape:label="Calque 1"
     inkscape:groupmode="layer"
     id="layer1">
    <path
       sodipodi:type="star"
       style="opacity:1;fill:#ffffff;fill-opacity:1;stroke:none;stroke-width:1;stroke-linecap:round;stroke-linejoin:bevel;stroke-miterlimit:4;stroke-dasharray:none;stroke-dashoffset:11.71653557;stroke-opacity:1"
       id="path5056"
       sodipodi:sides="5"
       sodipodi:cx="95.627975"
       sodipodi:cy="136.36012"
       sodipodi:r1="22.207735"
       sodipodi:r2="60.020908"
       sodipodi:arg1="0.85670563"
       sodipodi:arg2="1.4850242"
       inkscape:flatsided="false"
       inkscape:rounded="0.13"
       inkscape:randomized="0"
       d="m 110.1725,153.14227 c -4.32586,3.74907 -3.69937,42.52772 -9.40271,43.01811 -5.703345,0.49039 -11.705732,-37.82602 -16.608076,-40.78163 -4.902344,-2.9556 -41.58944,9.62348 -43.81826,4.35082 -2.228818,-5.27266 32.357418,-22.82169 33.653458,-28.39743 1.29604,-5.57574 -22.004316,-36.58009 -17.67846,-40.329164 4.325855,-3.749075 31.703712,23.721444 37.407053,23.231054 5.703341,-0.49039 27.990025,-32.231221 32.892365,-29.275615 4.90235,2.955605 -12.76344,37.482355 -10.53462,42.755015 2.22882,5.27266 39.3031,16.6601 38.00706,22.23584 -1.29604,5.57574 -39.59196,-0.55608 -43.91781,3.193 z"
       inkscape:transform-center-x="7.1898792"
       inkscape:transform-center-y="-11.147578"
       transform="rotate(-31.399891,98.805791,144.75868)" />
  </g>
</svg>
